                  [ [ [ -5.248580331470706e-4
                      , 1.5480735046067163e-2
                      , -1.962572166548833e-3
                      , 0.0
                      ]
                    , [ 1.5480735046067163e-2
                      , -0.9020979889637303
                      , -2.663854653093871e-2
                      , 0.201636050431033
                      ]
                    , [ -1.962572166548833e-3
                      , -2.663854653093871e-2
                      , 2.0419286039845804e-3
                      , -9.882249661946434e-2
                      ]
                    , [ 0.0
                      , 0.201636050431033
                      , -9.882249661946434e-2
                      , 0.28889889927004203
                      ]
                    ]
                  , [ [ -5.251912222164641e-4
                      , 1.5829548391096505e-2
                      , -1.9607037875810775e-3
                      , 0.0
                      ]
                    , [ 1.5829548391096505e-2
                      , -0.8990869109886859
                      , -2.7295643953528355e-2
                      , 0.2071573322562505
                      ]
                    , [ -1.9607037875810775e-3
                      , -2.7295643953528355e-2
                      , 2.035236334283451e-3
                      , -0.10174530850976468
                      ]
                    , [ 0.0
                      , 0.2071573322562505
                      , -0.10174530850976468
                      , 0.2882825523208543
                      ]
                    ]
                  , [ [ -5.39090587940591e-4
                      , 1.592141675584042e-2
                      , -1.9980358482833095e-3
                      , 0.0
                      ]
                    , [ 1.592141675584042e-2
                      , -0.8896019349706524
                      , -2.9366501105301687e-2
                      , 0.22343789935715885
                      ]
                    , [ -1.9980358482833095e-3
                      , -2.9366501105301687e-2
                      , 2.04843838482761e-3
                      , -0.11016279229576231
                      ]
                    , [ 0.0
                      , 0.22343789935715885
                      , -0.11016279229576231
                      , 0.28678125659647
                      ]
                    ]
                  , [ [ -4.935751538490832e-4
                      , 1.8066427604637537e-2
                      , -1.8541456230825976e-3
                      , 0.0
                      ]
                    , [ 1.8066427604637537e-2
                      , -0.9014851837255871
                      , -2.7026416976640728e-2
                      , 0.20280178781549277
                      ]
                    , [ -1.8541456230825976e-3
                      , -2.7026416976640728e-2
                      , 1.956004488814426e-3
                      , -9.996450956071805e-2
                      ]
                    , [ 0.0
                      , 0.20280178781549277
                      , -9.996450956071805e-2
                      , 0.28802245671742494
                      ]
                    ]
                  , [ [ -5.066900257656677e-4
                      , 1.8605966688877925e-2
                      , -1.8869273852602792e-3
                      , 0.0
                      ]
                    , [ 1.8605966688877925e-2
                      , -0.8899065781939447
                      , -2.9821450523221188e-2
                      , 0.22278502231333533
                      ]
                    , [ -1.8869273852602792e-3
                      , -2.9821450523221188e-2
                      , 1.9657672617315867e-3
                      , -0.11038034122948115
                      ]
                    , [ 0.0
                      , 0.22278502231333533
                      , -0.11038034122948115
                      , 0.2862692203361499
                      ]
                    ]
                  , [ [ -4.184053456641831e-4
                      , 2.054283959581744e-2
                      , -1.6101026542702916e-3
                      , 0.0
                      ]
                    , [ 2.054283959581744e-2
                      , -0.9134457209796888
                      , -2.4629321636882577e-2
                      , 0.17866744448541372
                      ]
                    , [ -1.6101026542702916e-3
                      , -2.4629321636882577e-2
                      , 1.789415657044792e-3
                      , -8.850350480184144e-2
                      ]
                    , [ 0.0
                      , 0.17866744448541372
                      , -8.850350480184144e-2
                      , 0.28989873618754197
                      ]
                    ]
                  , [ [ -5.148309350361062e-4
                      , 1.7206328435049524e-2
                      , -1.8908933337767864e-3
                      , 0.0
                      ]
                    , [ 1.7206328435049524e-2
                      , -0.8644053375965168
                      , -3.5503498484893786e-2
                      , 0.2598321471569654
                      ]
                    , [ -1.8908933337767864e-3
                      , -3.5503498484893786e-2
                      , 1.9430291279673645e-3
                      , -0.12998698620858753
                      ]
                    , [ 0.0
                      , 0.2598321471569654
                      , -0.12998698620858753
                      , 0.28435960704893465
                      ]
                    ]
                  , [ [ -3.542993551634535e-4
                      , 1.7907452130350953e-2
                      , -1.3972050150835994e-3
                      , 0.0
                      ]
                    , [ 1.7907452130350953e-2
                      , -0.920628476040194
                      , -2.260014751500832e-2
                      , 0.16069821583902177
                      ]
                    , [ -1.3972050150835994e-3
                      , -2.260014751500832e-2
                      , 1.636377765458719e-3
                      , -8.007849757224256e-2
                      ]
                    , [ 0.0
                      , 0.16069821583902177
                      , -8.007849757224256e-2
                      , 0.29376972234461163
                      ]
                    ]
                  , [ [ -8.435264944786978e-4
                      , -4.5196931633166064e-2
                      , -2.7866483846175193e-3
                      , 0.0
                      ]
                    , [ -4.5196931633166064e-2
                      , -0.5085710693691153
                      , -6.981126978402806e-2
                      , 0.514751307880121
                      ]
                    , [ -2.7866483846175193e-3
                      , -6.981126978402806e-2
                      , 2.3438190884631878e-3
                      , -0.26272847164215873
                      ]
                    , [ 0.0
                      , 0.514751307880121
                      , -0.26272847164215873
                      , 0.24394807228216941
                      ]
                    ]
                  , [ [ -4.89336076073223e-4
                      , -1.7748104510423395e-2
                      , -1.7925307085546519e-3
                      , 0.0
                      ]
                    , [ -1.7748104510423395e-2
                      , -0.863485649458596
                      , -3.5633743490694036e-2
                      , 0.2462872187347801
                      ]
                    , [ -1.7925307085546519e-3
                      , -3.5633743490694036e-2
                      , 1.9129679921054607e-3
                      , -0.1255006496268653
                      ]
                    , [ 0.0
                      , 0.2462872187347801
                      , -0.1255006496268653
                      , 0.313683081843038
                      ]
                    ]
                  , [ [ -3.825797063493042e-4
                      , -9.091756796392477e-3
                      , -1.482624619254408e-3
                      , 0.0
                      ]
                    , [ -9.091756796392477e-3
                      , -0.9052832752197333
                      , -2.61445088038256e-2
                      , 0.17880015891026452
                      ]
                    , [ -1.482624619254408e-3
                      , -2.61445088038256e-2
                      , 1.7224680304650324e-3
                      , -9.092026625714204e-2
                      ]
                    , [ 0.0
                      , 0.17880015891026452
                      , -9.092026625714204e-2
                      , 0.3137679205127168
                      ]
                    ]
                  , [ [ -2.18852088947926e-4
                      , 3.979659125097719e-3
                      , -1.0200128495162137e-3
                      , 0.0
                      ]
                    , [ 3.979659125097719e-3
                      , -0.9432830139311794
                      , -1.1488623465912779e-2
                      , 8.208701046742652e-2
                      ]
                    , [ -1.0200128495162137e-3
                      , -1.1488623465912779e-2
                      , 1.456223163965757e-3
                      , -4.127400793480381e-2
                      ]
                    , [ 0.0
                      , 8.208701046742652e-2
                      , -4.127400793480381e-2
                      , 0.3050141176168636
                      ]
                    ]
                  , [ [ 4.480441786924435e-3
                      , -3.2789650131891564e-3
                      , -1.0049483870534922e-2
                      , 9.160211686443012e-3
                      ]
                    , [ -3.2789650131891564e-3
                      , 0.5403518176391833
                      , 0.15532341256710155
                      , -0.46356894205670124
                      ]
                    , [ -1.0049483870534922e-2
                      , 0.15532341256710155
                      , 7.384942308736482e-2
                      , -0.15715429235255504
                      ]
                    , [ 9.160211686443012e-3
                      , -0.46356894205670124
                      , -0.15715429235255504
                      , 0.4179913860616989
                      ]
                    ]
                  ]
